[
    {
        "cedula":"1305905801",
        "nombre":"Karen",
        "direccion":"Padrera",
        "Telefono":"0988903457",
        "Correo":"e1305905801@gmail.com",
        "Curso":"5to Nivel",
        "Paralelo":"A"
    },
    {
        "cedula":"1312208711",
        "nombre":"Mónica",
        "direccion":"Jocay",
        "Telefono":"0988734509",
        "Correo":"e1312208711@live.uleam.edu.ec",
        "Curso":"5to Nivel",
        "Paralelo":"A"
    },
    {
        "cedula":"1317144986",
        "nombre":"Harvin",
        "direccion":"Palmar",
        "Telefono":"0932154287",
        "Correo":"e1317144986@live.uleam.edu.ec",
        "Curso":"5to Nivel",
        "Paralelo":"A"
    },
    {
        "cedula":"1315250025",
        "nombre":"Belén",
        "direccion":"Ensenadita",
        "Telefono":"0945912387",
        "Correo":"e1315250025@live.uleam.edu.ec",
        "Curso":"5to Nivel",
        "Paralelo":"A"
    },
    {
        "cedula":"1316617123",
        "nombre":"Bruno",
        "direccion":"Montecristi",
        "Telefono":"0985980033",
        "Correo":"e1316617123@live.uleam.edu.ec",
        "Curso":"5to Nivel",
        "Paralelo":"A"
    },
    {
        "cedula":"1316351483",
        "nombre":"Freddy",
        "direccion":"Urbirrios",
        "Telefono":"095144221",
        "Correo":"e1316351483@live.uleam.edu.ec",
        "Curso":"5to Nivel",
        "Paralelo":"A"
    },
    {
        "cedula":"1316498094",
        "nombre":"Jhon",
        "direccion":"Barrio Miraflores",
        "Telefono":"0998877665",
        "Correo":"e1316498094@live.uleam.edu.ec",
        "Curso":"5to Nivel",
        "Paralelo":"A"
    },
    {
        "cedula":"1316854965",
        "nombre":"AXEL",
        "direccion":"Urb. Santa María",
        "Telefono":"0988556542",
        "Correo":"e1316854965@live.uleam.edu.ec",
        "Curso":"5to Nivel",
        "Paralelo":"A"
    },
    {
        "cedula":"1313831982",
        "nombre":"Nathaly",
        "direccion":"Barrio 4 de Nov.",
        "Telefono":"0963214785",
        "Correo":"e1313831982@live.uleam.edu.ec",
        "Curso":"5to Nivel",
        "Paralelo":"A"
    },
    {
        "cedula":"1316552304",
        "nombre":"Edder",
        "direccion":"Cumbres",
        "Telefono":"0955223345",
        "Correo":"e1316552304@live.uleam.edu.ec",
        "Curso":"5to Nivel",
        "Paralelo":"A"
    }
    ]
    